malloc_count ### current 0, peak 0

Regular Expression construction ::
malloc_count ### current 6.781, peak 11.429
malloc_count ### current 6.958, peak 11.429

ENFA Equivalent construction ::
malloc_count ### current 6.958, peak 11.429
malloc_count ### current 9.986, peak 48.006

E-free NFA Equivalent construction ::
malloc_count ### current 9.986, peak 48.006
malloc_count ### current 12.922, peak 48.006

NFAPROD:
malloc_count ### current 12.922, peak 48.006
malloc_count ### current 457.558, peak 457.558

MATRIX:
malloc_count ### current 495.870, peak 507.590
malloc_count ### current 1.646.078, peak 1.649.882

malloc_count ### current 4.096, peak 2.298.208

malloc_count ### exiting, total: 2.501.351, peak: 2.298.208, current: 4.096
